%
M48
M72
T01C0.01181
T02C0.03600
T03C0.05906
T04C0.08268
%
T01
X199750Y38475
X246625Y34725
X287250Y28475
X339125Y56600
X312250Y77850
X334750Y105975
X298500Y117850
X318500Y130350
X341000Y131600
X352250Y152225
X324125Y155350
X299750Y144100
X304750Y172850
X329125Y179100
X353500Y175975
X349125Y196600
X325375Y200975
X303500Y214725
X300375Y214725
X297250Y214725
X283500Y222225
X291000Y226600
X287250Y237225
X283500Y237225
X283500Y240975
X287250Y240975
X279750Y240975
X279750Y237225
X265375Y234725
X269125Y222225
X308500Y232225
X312250Y232225
X329125Y237225
X322875Y247284
X310375Y249100
X302250Y261600
X290375Y269100
X286000Y269100
X287250Y264725
X283500Y264725
X290375Y274725
X294125Y274725
X287250Y286600
X256000Y258475
X256625Y251600
X215375Y276600
X206625Y276600
X206625Y269725
X197875Y269725
X197875Y276600
X206625Y284100
X215375Y284100
X358500Y222225
X406000Y208475
X444750Y217850
X475375Y221600
X502875Y239725
X517250Y260975
X533500Y279100
X491000Y279725
X476625Y265975
X411000Y279100
X402875Y287225
X519125Y209725
X494750Y187225
X527250Y172225
X497250Y146600
X475375Y165350
X442875Y181600
X402875Y169725
X397250Y149725
X429125Y135975
X458500Y135975
X479750Y107850
X441625Y104725
X407875Y84725
X390375Y68475
X398500Y116600
X487250Y77225
X295375Y196600
X250375Y160975
X221625Y157850
X195375Y145350
X219125Y140350
X243500Y139100
X219125Y120350
X239750Y108475
X221625Y77225
X247250Y65350
T02
X446000Y75350
X456000Y75350
X466000Y75350
T03
X226000Y221600
X196000Y221600
X166000Y221600
X136000Y221600
X106000Y221600
X76000Y221600
X46000Y221600
X46000Y241600
X76000Y241600
X106000Y241600
X136000Y241600
X166000Y241600
X196000Y241600
X226000Y241600
X103441Y191639
X103441Y165065
T04
X401079Y50891
X401079Y29238
M30
