"Qty";"Value";"Device";"Package";"Parts";"Description";"MF";"MPN";"OC_FARNELL";"OC_NEWARK";"PACKAGE";"SUPPLIER";
"1";"";"DIP09YL";"DIP09YL";"S1";"DIL/CODE SWITCH";"";"";"unknown";"unknown";"";"";
"2";"";"JST-PH6";"JST-PH6";"P1, P2";"";"";"";"";"";"";"";
"3";"";"LEDCHIPLED_0805";"CHIPLED_0805";"D1, D2, D3";"LED";"";"";"";"";"";"";
"1";"";"PINHD-1X2";"1X02";"JP1";"PIN HEADER";"";"";"";"";"";"";
"2";"";"R-EU_R0805W";"R0805W";"F2, F3";"RESISTOR, European symbol";"";"";"";"";"";"";
"1";"";"SCHOTTKY-DIODESMD";"SMB";"D4";"Schottky Diode";"";"";"";"";"";"";
"5";"";"SMD2";"SMD1,27-2,54";"PAD1, PAD2, PAD3, PAD4, PAD5";"SMD PAD";"";"";"";"";"";"";
"1";"";"W237-05P";"W237-5P";"X2";"WAGO SREW CLAMP";"";"";"unknown";"unknown";"";"";
"4";"100n";"C-EUC0603";"C0603";"C1, C2, C3, C4";"CAPACITOR, European symbol";"";"";"";"";"";"";
"3";"10k";"R-EU_R0603";"R0603";"R1, R3, R4";"RESISTOR, European symbol";"";"";"";"";"";"";
"1";"10u/16V";"C-EUC1206";"C1206";"C5";"CAPACITOR, European symbol";"";"";"";"";"";"";
"1";"1206";"1206";"1206";"F1";"";"";"";"";"";"";"";
"2";"15p";"C-EUC0603";"C0603";"C6, C7";"CAPACITOR, European symbol";"";"";"";"";"";"";
"3";"1k";"R-EU_R0603";"R0603";"R5, R6, R7";"RESISTOR, European symbol";"";"";"";"";"";"";
"1";"220";"R-EU_R0603";"R0603";"R2";"RESISTOR, European symbol";"";"";"";"";"";"";
"2";"BC847CSMD";"BC847CSMD";"SOT23";"Q2, Q3";"NPN Transistor";"";"";"";"";"";"";
"1";"CSM-7X-DU";"CSM-7X-DU";"CSM-7X-DU";"Q1";"SMD CRYSTAL";"";"";"unknown";"unknown";"";"";
"1";"HALL1";"22-23-2031";"22-23-2031";"X4";".100" (2.54mm) Center Header - 3 Pin";"MOLEX";"22-23-2031";"1462950";"30C0862";"";"";
"1";"HALL2";"22-23-2031";"22-23-2031";"X1";".100" (2.54mm) Center Header - 3 Pin";"MOLEX";"22-23-2031";"1462950";"30C0862";"";"";
"4";"MOUNT-HOLE3.0";"MOUNT-HOLE3.0";"3,0";"H1, H2, H3, H4";"MOUNTING HOLE with drill center marker";"";"";"";"";"";"";
"1";"PIC16F1527-I/PT";"PIC16F1527-I/PT";"QFP50P1200X1200X120-64N";"U6";"MCU 28KB FLASH 1536B RAM ,TQFP-64";"";"PIC16F1527-I/PT";"1909409";"13T4723";"TQFP-64";"Microchip";
"1";"SN75176AD";"SN75176AD";"SOIC127P600X175-8N";"U4";"DIFFERENTIAL BUS TRANSCEIVER";"";"SN75176AD";"9592946";"35K0839";"SOIC-8";"Texas Instruments";
"1";"TR05S";"TR05S";"SIP3";"U5";"DC/DC CONVERTER";"";"";"";"";"";"";
"1";"ULN2803ADWR";"ULN2803ADWR";"SOIC127P1030X265-18N";"U2";"Darlington transistor array";"";"ULN2803ADWR";"1652420";"87H4769";"SOIC-18";"TEXAS INSTRUMENTS";
