%
M48
M72
T01C0.01181
T02C0.03600
T03C0.04000
T04C0.04724
T05C0.05118
T06C0.05906
T07C0.08268
T08C0.12598
T09C0.31496
%
T01
X362654Y22894
X382654Y22894
X382654Y35894
X362654Y35894
X362654Y55894
X362654Y75894
X382654Y75894
X402654Y75894
X427654Y80894
X430654Y78894
X433654Y80894
X436654Y78894
X439654Y80894
X442654Y78894
X445654Y80894
X448654Y78894
X476898Y66730
X481898Y66730
X486898Y66730
X486898Y61730
X481898Y61730
X481898Y56730
X476898Y56730
X476898Y61730
X422654Y22894
X402654Y22894
X402654Y95894
X382654Y95894
X362654Y95894
X362654Y115894
X382654Y115894
X402654Y115894
X402654Y135894
X382654Y135894
X362654Y135894
X362654Y155894
X382654Y155894
X402654Y155894
X402654Y175894
X382654Y175894
X362654Y175894
X362654Y195894
X382654Y195894
X402654Y195894
X423654Y200894
X427654Y196894
X432654Y191894
X432654Y188894
X432654Y184894
X436654Y184894
X436654Y187894
X436654Y191894
X427654Y179894
X448513Y166894
X456494Y165007
X461494Y166007
X462494Y154007
X472654Y135894
X482654Y135894
X492654Y135894
X502654Y135894
X512654Y135894
X512654Y145894
X517654Y165894
X522654Y165894
X522654Y170894
X517654Y170894
X482518Y192181
X482518Y196181
X482518Y200181
X486518Y200181
X486518Y196181
X473763Y191574
X464654Y191894
X464654Y188894
X461654Y188894
X461654Y185894
X458654Y186894
X458654Y189894
X458654Y192894
X461654Y191894
X460654Y197049
X461651Y201548
X465651Y201548
X469651Y201548
X473651Y202548
X486518Y204181
X486518Y208181
X486518Y212181
X486518Y216181
X494654Y220894
X498654Y220894
X502654Y220894
X506654Y220894
X506654Y224894
X502654Y224894
X498654Y224894
X494654Y224894
X518654Y225894
X522654Y225894
X525654Y228894
X525654Y232894
X525654Y238894
X525654Y244894
X525654Y250894
X508654Y262894
X504654Y262894
X502654Y265894
X502654Y270894
X502654Y275894
X502654Y280894
X497654Y280894
X492654Y280894
X492654Y285894
X497654Y285894
X502654Y285894
X482654Y285894
X472654Y285894
X462654Y285894
X452654Y285894
X442654Y285894
X432654Y285894
X422654Y285894
X417654Y285894
X413654Y281894
X412654Y275894
X412654Y265894
X412654Y255894
X412654Y245894
X412654Y235894
X402654Y235894
X382654Y235894
X382654Y215894
X362654Y215894
X402654Y215894
X447654Y227894
X452513Y217760
X457651Y205548
X457651Y201548
X518654Y221894
X522654Y221894
X486654Y265894
X486654Y268894
X486654Y271894
X482654Y125894
X472654Y125894
X492654Y125894
X502654Y125894
X502654Y115894
T02
X100690Y249992
X100690Y272492
T03
X63567Y199788
X63567Y154788
X438654Y146894
X448654Y146894
X448654Y136894
X438654Y136894
X438654Y126894
X448654Y126894
T04
X181417Y228241
X151890Y238398
X87660Y274131
X55933Y270382
X66970Y245286
X77503Y244604
X40803Y243067
X51840Y217971
X76488Y199658
X66331Y170130
T05
X121937Y259595
X121945Y269438
X121937Y279280
X151465Y279280
X151472Y269438
X151465Y259595
X180992Y259595
X181000Y269438
X180992Y279280
X210520Y279280
X210528Y269438
X210520Y259595
X240047Y259595
X240055Y269438
X240047Y279280
X428882Y275571
X429031Y265500
X428882Y255886
X458409Y255886
X458559Y265500
X458409Y275571
T06
X105094Y205934
X105094Y179359
T07
X402732Y65186
X402732Y43532
T08
X62654Y115894
X22654Y286894
X532654Y285894
T09
X300654Y262894
M30
