<?xml version="1.0" encoding="utf-8"?>
<!DOCTYPE eagle SYSTEM "eagle.dtd">
<eagle version="7.1.0">
<drawing>
<settings>
<setting alwaysvectorfont="no"/>
<setting verticaltext="up"/>
</settings>
<grid distance="0.05" unitdist="inch" unit="inch" style="lines" multiple="1" display="no" altdistance="0.01" altunitdist="inch" altunit="inch"/>
<layers>
<layer number="1" name="Top" color="4" fill="1" visible="no" active="no"/>
<layer number="2" name="Route2" color="1" fill="3" visible="no" active="no"/>
<layer number="3" name="Route3" color="4" fill="3" visible="no" active="no"/>
<layer number="4" name="Route4" color="1" fill="4" visible="no" active="no"/>
<layer number="5" name="Route5" color="4" fill="4" visible="no" active="no"/>
<layer number="6" name="Route6" color="1" fill="8" visible="no" active="no"/>
<layer number="7" name="Route7" color="4" fill="8" visible="no" active="no"/>
<layer number="8" name="Route8" color="1" fill="2" visible="no" active="no"/>
<layer number="9" name="Route9" color="4" fill="2" visible="no" active="no"/>
<layer number="10" name="Route10" color="1" fill="7" visible="no" active="no"/>
<layer number="11" name="Route11" color="4" fill="7" visible="no" active="no"/>
<layer number="12" name="Route12" color="1" fill="5" visible="no" active="no"/>
<layer number="13" name="Route13" color="4" fill="5" visible="no" active="no"/>
<layer number="14" name="Route14" color="1" fill="6" visible="no" active="no"/>
<layer number="15" name="Route15" color="4" fill="6" visible="no" active="no"/>
<layer number="16" name="Bottom" color="1" fill="1" visible="no" active="no"/>
<layer number="17" name="Pads" color="2" fill="1" visible="no" active="no"/>
<layer number="18" name="Vias" color="2" fill="1" visible="no" active="no"/>
<layer number="19" name="Unrouted" color="6" fill="1" visible="no" active="no"/>
<layer number="20" name="Dimension" color="15" fill="1" visible="no" active="no"/>
<layer number="21" name="tPlace" color="7" fill="1" visible="no" active="no"/>
<layer number="22" name="bPlace" color="7" fill="1" visible="no" active="no"/>
<layer number="23" name="tOrigins" color="15" fill="1" visible="no" active="no"/>
<layer number="24" name="bOrigins" color="15" fill="1" visible="no" active="no"/>
<layer number="25" name="tNames" color="7" fill="1" visible="no" active="no"/>
<layer number="26" name="bNames" color="7" fill="1" visible="no" active="no"/>
<layer number="27" name="tValues" color="7" fill="1" visible="no" active="no"/>
<layer number="28" name="bValues" color="7" fill="1" visible="no" active="no"/>
<layer number="29" name="tStop" color="7" fill="3" visible="no" active="no"/>
<layer number="30" name="bStop" color="7" fill="6" visible="no" active="no"/>
<layer number="31" name="tCream" color="7" fill="4" visible="no" active="no"/>
<layer number="32" name="bCream" color="7" fill="5" visible="no" active="no"/>
<layer number="33" name="tFinish" color="6" fill="3" visible="no" active="no"/>
<layer number="34" name="bFinish" color="6" fill="6" visible="no" active="no"/>
<layer number="35" name="tGlue" color="7" fill="4" visible="no" active="no"/>
<layer number="36" name="bGlue" color="7" fill="5" visible="no" active="no"/>
<layer number="37" name="tTest" color="7" fill="1" visible="no" active="no"/>
<layer number="38" name="bTest" color="7" fill="1" visible="no" active="no"/>
<layer number="39" name="tKeepout" color="4" fill="11" visible="no" active="no"/>
<layer number="40" name="bKeepout" color="1" fill="11" visible="no" active="no"/>
<layer number="41" name="tRestrict" color="4" fill="10" visible="no" active="no"/>
<layer number="42" name="bRestrict" color="1" fill="10" visible="no" active="no"/>
<layer number="43" name="vRestrict" color="2" fill="10" visible="no" active="no"/>
<layer number="44" name="Drills" color="7" fill="1" visible="no" active="no"/>
<layer number="45" name="Holes" color="7" fill="1" visible="no" active="no"/>
<layer number="46" name="Milling" color="3" fill="1" visible="no" active="no"/>
<layer number="47" name="Measures" color="7" fill="1" visible="no" active="no"/>
<layer number="48" name="Document" color="7" fill="1" visible="no" active="no"/>
<layer number="49" name="Reference" color="7" fill="1" visible="no" active="no"/>
<layer number="51" name="tDocu" color="7" fill="1" visible="no" active="no"/>
<layer number="52" name="bDocu" color="7" fill="1" visible="no" active="no"/>
<layer number="90" name="Modules" color="5" fill="1" visible="yes" active="yes"/>
<layer number="91" name="Nets" color="2" fill="1" visible="yes" active="yes"/>
<layer number="92" name="Busses" color="1" fill="1" visible="yes" active="yes"/>
<layer number="93" name="Pins" color="2" fill="1" visible="no" active="yes"/>
<layer number="94" name="Symbols" color="4" fill="1" visible="yes" active="yes"/>
<layer number="95" name="Names" color="7" fill="1" visible="yes" active="yes"/>
<layer number="96" name="Values" color="7" fill="1" visible="yes" active="yes"/>
<layer number="97" name="Info" color="7" fill="1" visible="yes" active="yes"/>
<layer number="98" name="Guide" color="6" fill="1" visible="yes" active="yes"/>
</layers>
<schematic xreflabel="%F%N/%S.%C%R" xrefpart="/%S.%C%R">
<libraries>
<library name="frames">
<description>&lt;b&gt;Frames for Sheet and Layout&lt;/b&gt;</description>
<packages>
</packages>
<symbols>
<symbol name="A3L-LOC">
<wire x1="288.29" y1="3.81" x2="342.265" y2="3.81" width="0.1016" layer="94"/>
<wire x1="342.265" y1="3.81" x2="373.38" y2="3.81" width="0.1016" layer="94"/>
<wire x1="373.38" y1="3.81" x2="383.54" y2="3.81" width="0.1016" layer="94"/>
<wire x1="383.54" y1="3.81" x2="383.54" y2="8.89" width="0.1016" layer="94"/>
<wire x1="383.54" y1="8.89" x2="383.54" y2="13.97" width="0.1016" layer="94"/>
<wire x1="383.54" y1="13.97" x2="383.54" y2="19.05" width="0.1016" layer="94"/>
<wire x1="383.54" y1="19.05" x2="383.54" y2="24.13" width="0.1016" layer="94"/>
<wire x1="288.29" y1="3.81" x2="288.29" y2="24.13" width="0.1016" layer="94"/>
<wire x1="288.29" y1="24.13" x2="342.265" y2="24.13" width="0.1016" layer="94"/>
<wire x1="342.265" y1="24.13" x2="383.54" y2="24.13" width="0.1016" layer="94"/>
<wire x1="373.38" y1="3.81" x2="373.38" y2="8.89" width="0.1016" layer="94"/>
<wire x1="373.38" y1="8.89" x2="383.54" y2="8.89" width="0.1016" layer="94"/>
<wire x1="373.38" y1="8.89" x2="342.265" y2="8.89" width="0.1016" layer="94"/>
<wire x1="342.265" y1="8.89" x2="342.265" y2="3.81" width="0.1016" layer="94"/>
<wire x1="342.265" y1="8.89" x2="342.265" y2="13.97" width="0.1016" layer="94"/>
<wire x1="342.265" y1="13.97" x2="383.54" y2="13.97" width="0.1016" layer="94"/>
<wire x1="342.265" y1="13.97" x2="342.265" y2="19.05" width="0.1016" layer="94"/>
<wire x1="342.265" y1="19.05" x2="383.54" y2="19.05" width="0.1016" layer="94"/>
<wire x1="342.265" y1="19.05" x2="342.265" y2="24.13" width="0.1016" layer="94"/>
<text x="344.17" y="15.24" size="2.54" layer="94">&gt;DRAWING_NAME</text>
<text x="344.17" y="10.16" size="2.286" layer="94">&gt;LAST_DATE_TIME</text>
<text x="357.505" y="5.08" size="2.54" layer="94">&gt;SHEET</text>
<text x="343.916" y="4.953" size="2.54" layer="94">Sheet:</text>
<frame x1="0" y1="0" x2="387.35" y2="260.35" columns="8" rows="5" layer="94"/>
</symbol>
</symbols>
<devicesets>
<deviceset name="A3L-LOC" prefix="FRAME" uservalue="yes">
<description>&lt;b&gt;FRAME&lt;/b&gt;&lt;p&gt;
DIN A3, landscape with location and doc. field</description>
<gates>
<gate name="G$1" symbol="A3L-LOC" x="0" y="0"/>
</gates>
<devices>
<device name="">
<technologies>
<technology name=""/>
</technologies>
</device>
</devices>
</deviceset>
</devicesets>
</library>
</libraries>
<attributes>
</attributes>
<variantdefs>
</variantdefs>
<classes>
<class number="0" name="default" width="0" drill="0">
</class>
</classes>
<parts>
<part name="FRAME1" library="frames" deviceset="A3L-LOC" device=""/>
</parts>
<sheets>
<sheet>
<plain>
<text x="19.05" y="100.33" size="1.778" layer="91">100-250VAC</text>
<text x="88.9" y="99.06" size="1.778" layer="91">100-250VAC/24VDC</text>
<text x="116.84" y="99.06" size="1.778" layer="91">24VDC</text>
<text x="137.16" y="91.44" size="1.778" layer="91">RIADIACIA DPS:
-Vstupne konektory ILDA signalu ALEBO
prevodnik ETH na ILDA
-Uzivatelske ovladacie prvky
-Potenciometre na ovladanie intenzity farieb
-Tlacidla na zrkadlenie osi
-Menic 24VDC/+-24VDC</text>
<text x="187.96" y="139.7" size="1.778" layer="91">+-24VDC
Signaly pre scannerovy driver</text>
<text x="195.58" y="104.14" size="1.778" layer="91">+24VDC
Signaly pre diodovy driver</text>
<text x="233.68" y="134.62" size="1.778" layer="91">Scannerovy driver</text>
<text x="233.68" y="99.06" size="1.778" layer="91">Diodovy driver</text>
<text x="278.13" y="96.52" size="1.778" layer="91">Laserovy RGB modul alebo
samosatne moduly</text>
<text x="322.58" y="91.44" size="1.778" layer="91">Zdrkadla</text>
<text x="346.71" y="152.4" size="1.778" layer="91">Antireflexne sklo</text>
<text x="309.88" y="123.19" size="1.778" layer="91">X scanner</text>
<text x="320.04" y="142.24" size="1.778" layer="91" rot="R90">Y scanner</text>
<text x="294.64" y="12.7" size="1.778" layer="94">Bloková schéma laserového projektoru</text>
<text x="345.44" y="20.32" size="1.778" layer="94">Vypracoval: Peter Mego</text>
<text x="41.91" y="97.79" size="1.778" layer="91">Emergency STOP
modul</text>
<text x="44.45" y="137.16" size="1.778" layer="91">Tlačidlo STOP</text>
<text x="67.31" y="100.33" size="1.778" layer="91">100-250VAC</text>
</plain>
<instances>
<instance part="FRAME1" gate="G$1" x="0" y="0"/>
</instances>
<busses>
<bus name="B$1">
<segment>
<wire x1="35.56" y1="101.6" x2="38.1" y2="99.06" width="0.762" layer="92"/>
<wire x1="38.1" y1="99.06" x2="35.56" y2="96.52" width="0.762" layer="92"/>
<wire x1="35.56" y1="96.52" x2="35.56" y2="99.06" width="0.762" layer="92"/>
<wire x1="35.56" y1="99.06" x2="35.56" y2="101.6" width="0.762" layer="92"/>
<wire x1="35.56" y1="99.06" x2="16.51" y2="99.06" width="0.762" layer="92"/>
</segment>
<segment>
<wire x1="82.55" y1="101.6" x2="85.09" y2="99.06" width="0.762" layer="92"/>
<wire x1="85.09" y1="99.06" x2="82.55" y2="96.52" width="0.762" layer="92"/>
<wire x1="82.55" y1="96.52" x2="82.55" y2="99.06" width="0.762" layer="92"/>
<wire x1="82.55" y1="99.06" x2="82.55" y2="101.6" width="0.762" layer="92"/>
<wire x1="82.55" y1="99.06" x2="64.77" y2="99.06" width="0.762" layer="92"/>
</segment>
</bus>
</busses>
<nets>
<net name="N$1" class="0">
<segment>
<wire x1="86.36" y1="111.76" x2="114.3" y2="111.76" width="0.1524" layer="91"/>
<wire x1="114.3" y1="111.76" x2="114.3" y2="101.6" width="0.1524" layer="91"/>
<wire x1="114.3" y1="101.6" x2="114.3" y2="96.52" width="0.1524" layer="91"/>
<wire x1="114.3" y1="96.52" x2="114.3" y2="86.36" width="0.1524" layer="91"/>
<wire x1="114.3" y1="86.36" x2="86.36" y2="86.36" width="0.1524" layer="91"/>
<wire x1="114.3" y1="101.6" x2="129.54" y2="101.6" width="0.1524" layer="91"/>
<wire x1="114.3" y1="96.52" x2="129.54" y2="96.52" width="0.1524" layer="91"/>
<wire x1="86.36" y1="86.36" x2="86.36" y2="111.76" width="0.1524" layer="91"/>
</segment>
</net>
<net name="N$2" class="0">
<segment>
<wire x1="129.54" y1="104.14" x2="129.54" y2="93.98" width="0.1524" layer="91"/>
<wire x1="129.54" y1="93.98" x2="134.62" y2="99.06" width="0.1524" layer="91"/>
<wire x1="134.62" y1="99.06" x2="129.54" y2="104.14" width="0.1524" layer="91"/>
</segment>
</net>
<net name="N$3" class="0">
<segment>
<wire x1="134.62" y1="111.76" x2="134.62" y2="86.36" width="0.1524" layer="91"/>
<wire x1="134.62" y1="86.36" x2="187.96" y2="86.36" width="0.1524" layer="91"/>
<wire x1="187.96" y1="86.36" x2="187.96" y2="111.76" width="0.1524" layer="91"/>
<wire x1="187.96" y1="111.76" x2="134.62" y2="111.76" width="0.1524" layer="91"/>
</segment>
</net>
<net name="N$4" class="0">
<segment>
<wire x1="226.06" y1="139.7" x2="226.06" y2="129.54" width="0.1524" layer="91"/>
<wire x1="226.06" y1="129.54" x2="231.14" y2="134.62" width="0.1524" layer="91"/>
<wire x1="231.14" y1="134.62" x2="226.06" y2="139.7" width="0.1524" layer="91"/>
</segment>
</net>
<net name="N$8" class="0">
<segment>
<wire x1="172.72" y1="137.16" x2="226.06" y2="137.16" width="0.1524" layer="91"/>
<wire x1="177.8" y1="132.08" x2="226.06" y2="132.08" width="0.1524" layer="91"/>
<wire x1="180.34" y1="116.84" x2="177.8" y2="116.84" width="0.1524" layer="91"/>
<wire x1="177.8" y1="116.84" x2="172.72" y2="116.84" width="0.1524" layer="91"/>
<wire x1="172.72" y1="116.84" x2="170.18" y2="116.84" width="0.1524" layer="91"/>
<wire x1="170.18" y1="116.84" x2="175.26" y2="111.76" width="0.1524" layer="91"/>
<wire x1="175.26" y1="111.76" x2="180.34" y2="116.84" width="0.1524" layer="91"/>
<wire x1="177.8" y1="132.08" x2="177.8" y2="116.84" width="0.1524" layer="91"/>
<wire x1="172.72" y1="137.16" x2="172.72" y2="116.84" width="0.1524" layer="91"/>
</segment>
</net>
<net name="N$5" class="0">
<segment>
<wire x1="226.06" y1="104.14" x2="226.06" y2="93.98" width="0.1524" layer="91"/>
<wire x1="226.06" y1="93.98" x2="231.14" y2="99.06" width="0.1524" layer="91"/>
<wire x1="231.14" y1="99.06" x2="226.06" y2="104.14" width="0.1524" layer="91"/>
</segment>
</net>
<net name="N$6" class="0">
<segment>
<wire x1="193.04" y1="101.6" x2="226.06" y2="101.6" width="0.1524" layer="91"/>
<wire x1="193.04" y1="96.52" x2="226.06" y2="96.52" width="0.1524" layer="91"/>
</segment>
</net>
<net name="N$7" class="0">
<segment>
<wire x1="193.04" y1="93.98" x2="193.04" y2="104.14" width="0.1524" layer="91"/>
<wire x1="193.04" y1="104.14" x2="187.96" y2="99.06" width="0.1524" layer="91"/>
<wire x1="187.96" y1="99.06" x2="193.04" y2="93.98" width="0.1524" layer="91"/>
</segment>
</net>
<net name="N$9" class="0">
<segment>
<wire x1="231.14" y1="144.78" x2="231.14" y2="124.46" width="0.1524" layer="91"/>
<wire x1="231.14" y1="124.46" x2="256.54" y2="124.46" width="0.1524" layer="91"/>
<wire x1="256.54" y1="124.46" x2="256.54" y2="144.78" width="0.1524" layer="91"/>
<wire x1="256.54" y1="144.78" x2="231.14" y2="144.78" width="0.1524" layer="91"/>
</segment>
</net>
<net name="N$10" class="0">
<segment>
<wire x1="231.14" y1="109.22" x2="231.14" y2="88.9" width="0.1524" layer="91"/>
<wire x1="231.14" y1="88.9" x2="256.54" y2="88.9" width="0.1524" layer="91"/>
<wire x1="256.54" y1="88.9" x2="256.54" y2="109.22" width="0.1524" layer="91"/>
<wire x1="256.54" y1="109.22" x2="231.14" y2="109.22" width="0.1524" layer="91"/>
</segment>
</net>
<net name="N$11" class="0">
<segment>
<wire x1="271.78" y1="104.14" x2="271.78" y2="93.98" width="0.1524" layer="91"/>
<wire x1="271.78" y1="93.98" x2="276.86" y2="99.06" width="0.1524" layer="91"/>
<wire x1="276.86" y1="99.06" x2="271.78" y2="104.14" width="0.1524" layer="91"/>
</segment>
</net>
<net name="N$12" class="0">
<segment>
<wire x1="261.62" y1="101.6" x2="271.78" y2="101.6" width="0.1524" layer="91"/>
<wire x1="261.62" y1="96.52" x2="271.78" y2="96.52" width="0.1524" layer="91"/>
</segment>
</net>
<net name="N$13" class="0">
<segment>
<wire x1="261.62" y1="93.98" x2="261.62" y2="104.14" width="0.1524" layer="91"/>
<wire x1="261.62" y1="104.14" x2="256.54" y2="99.06" width="0.1524" layer="91"/>
<wire x1="256.54" y1="99.06" x2="261.62" y2="93.98" width="0.1524" layer="91"/>
</segment>
</net>
<net name="N$14" class="0">
<segment>
<wire x1="311.15" y1="134.62" x2="311.15" y2="129.54" width="0.1524" layer="91"/>
<wire x1="311.15" y1="129.54" x2="313.69" y2="132.08" width="0.1524" layer="91"/>
<wire x1="313.69" y1="132.08" x2="311.15" y2="134.62" width="0.1524" layer="91"/>
</segment>
</net>
<net name="N$15" class="0">
<segment>
<wire x1="259.08" y1="132.08" x2="311.15" y2="132.08" width="0.1524" layer="91"/>
</segment>
</net>
<net name="N$16" class="0">
<segment>
<wire x1="259.08" y1="129.54" x2="259.08" y2="134.62" width="0.1524" layer="91"/>
<wire x1="259.08" y1="134.62" x2="256.54" y2="132.08" width="0.1524" layer="91"/>
<wire x1="256.54" y1="132.08" x2="259.08" y2="129.54" width="0.1524" layer="91"/>
</segment>
</net>
<net name="N$17" class="0">
<segment>
<wire x1="276.86" y1="109.22" x2="276.86" y2="88.9" width="0.1524" layer="91"/>
<wire x1="276.86" y1="88.9" x2="314.96" y2="88.9" width="0.1524" layer="91"/>
<wire x1="314.96" y1="88.9" x2="314.96" y2="99.06" width="0.1524" layer="91"/>
<wire x1="314.96" y1="99.06" x2="314.96" y2="109.22" width="0.1524" layer="91"/>
<wire x1="314.96" y1="109.22" x2="276.86" y2="109.22" width="0.1524" layer="91"/>
<wire x1="330.2" y1="102.87" x2="326.39" y2="99.06" width="0.1524" layer="91"/>
<wire x1="326.39" y1="99.06" x2="322.58" y2="95.25" width="0.1524" layer="91"/>
<wire x1="322.58" y1="95.25" x2="330.2" y2="95.25" width="0.1524" layer="91"/>
<wire x1="330.2" y1="95.25" x2="330.2" y2="102.87" width="0.1524" layer="91"/>
<wire x1="314.96" y1="99.06" x2="326.39" y2="99.06" width="0.1524" layer="91"/>
<wire x1="326.39" y1="99.06" x2="326.39" y2="130.81" width="0.1524" layer="91"/>
</segment>
</net>
<net name="N$19" class="0">
<segment>
<wire x1="322.58" y1="133.35" x2="322.58" y2="130.81" width="0.1524" layer="91"/>
<wire x1="322.58" y1="130.81" x2="330.2" y2="130.81" width="0.1524" layer="91"/>
<wire x1="330.2" y1="130.81" x2="330.2" y2="133.35" width="0.1524" layer="91"/>
<wire x1="330.2" y1="133.35" x2="326.39" y2="133.35" width="0.1524" layer="91"/>
<wire x1="326.39" y1="133.35" x2="322.58" y2="133.35" width="0.1524" layer="91"/>
<wire x1="327.66" y1="143.51" x2="325.12" y2="143.51" width="0.1524" layer="91"/>
<wire x1="325.12" y1="143.51" x2="325.12" y2="135.89" width="0.1524" layer="91"/>
<wire x1="325.12" y1="135.89" x2="326.39" y2="135.89" width="0.1524" layer="91"/>
<wire x1="326.39" y1="135.89" x2="327.66" y2="135.89" width="0.1524" layer="91"/>
<wire x1="327.66" y1="135.89" x2="327.66" y2="139.7" width="0.1524" layer="91"/>
<wire x1="327.66" y1="139.7" x2="327.66" y2="143.51" width="0.1524" layer="91"/>
<wire x1="326.39" y1="133.35" x2="326.39" y2="135.89" width="0.1524" layer="91"/>
<wire x1="327.66" y1="139.7" x2="369.57" y2="139.7" width="0.1524" layer="91"/>
<wire x1="327.66" y1="139.7" x2="369.57" y2="142.24" width="0.1524" layer="91"/>
<wire x1="327.66" y1="139.7" x2="369.57" y2="137.16" width="0.1524" layer="91"/>
</segment>
</net>
<net name="N$20" class="0">
<segment>
<wire x1="322.58" y1="134.62" x2="322.58" y2="129.54" width="0.1524" layer="91"/>
<wire x1="322.58" y1="129.54" x2="316.23" y2="129.54" width="0.1524" layer="91"/>
<wire x1="316.23" y1="129.54" x2="316.23" y2="134.62" width="0.1524" layer="91"/>
<wire x1="316.23" y1="134.62" x2="322.58" y2="134.62" width="0.1524" layer="91"/>
</segment>
</net>
<net name="N$21" class="0">
<segment>
<wire x1="316.23" y1="137.16" x2="316.23" y2="127" width="0.1524" layer="91"/>
<wire x1="316.23" y1="127" x2="313.69" y2="127" width="0.1524" layer="91"/>
<wire x1="313.69" y1="127" x2="313.69" y2="137.16" width="0.1524" layer="91"/>
<wire x1="313.69" y1="137.16" x2="316.23" y2="137.16" width="0.1524" layer="91"/>
</segment>
</net>
<net name="N$23" class="0">
<segment>
<wire x1="328.93" y1="143.51" x2="323.85" y2="143.51" width="0.1524" layer="91"/>
<wire x1="323.85" y1="143.51" x2="323.85" y2="149.86" width="0.1524" layer="91"/>
<wire x1="323.85" y1="149.86" x2="328.93" y2="149.86" width="0.1524" layer="91"/>
<wire x1="328.93" y1="149.86" x2="328.93" y2="143.51" width="0.1524" layer="91"/>
</segment>
</net>
<net name="N$24" class="0">
<segment>
<wire x1="331.47" y1="149.86" x2="321.31" y2="149.86" width="0.1524" layer="91"/>
<wire x1="321.31" y1="149.86" x2="321.31" y2="152.4" width="0.1524" layer="91"/>
<wire x1="321.31" y1="152.4" x2="331.47" y2="152.4" width="0.1524" layer="91"/>
<wire x1="331.47" y1="152.4" x2="331.47" y2="149.86" width="0.1524" layer="91"/>
</segment>
</net>
<net name="N$26" class="0">
<segment>
<wire x1="309.88" y1="139.7" x2="309.88" y2="158.75" width="0.1524" layer="91"/>
<wire x1="309.88" y1="158.75" x2="326.39" y2="158.75" width="0.1524" layer="91"/>
<wire x1="328.93" y1="154.94" x2="326.39" y2="154.94" width="0.1524" layer="91"/>
<wire x1="326.39" y1="154.94" x2="323.85" y2="154.94" width="0.1524" layer="91"/>
<wire x1="323.85" y1="154.94" x2="326.39" y2="152.4" width="0.1524" layer="91"/>
<wire x1="326.39" y1="152.4" x2="328.93" y2="154.94" width="0.1524" layer="91"/>
<wire x1="326.39" y1="158.75" x2="326.39" y2="154.94" width="0.1524" layer="91"/>
<wire x1="259.08" y1="137.16" x2="259.08" y2="139.7" width="0.1524" layer="91"/>
<wire x1="259.08" y1="139.7" x2="259.08" y2="142.24" width="0.1524" layer="91"/>
<wire x1="259.08" y1="142.24" x2="256.54" y2="139.7" width="0.1524" layer="91"/>
<wire x1="256.54" y1="139.7" x2="259.08" y2="137.16" width="0.1524" layer="91"/>
<wire x1="309.88" y1="139.7" x2="259.08" y2="139.7" width="0.1524" layer="91"/>
</segment>
</net>
<net name="N$18" class="0">
<segment>
<wire x1="346.71" y1="149.86" x2="346.71" y2="129.54" width="0.1524" layer="91"/>
<wire x1="346.71" y1="129.54" x2="345.44" y2="128.27" width="0.1524" layer="91"/>
<wire x1="346.71" y1="129.54" x2="347.98" y2="128.27" width="0.1524" layer="91"/>
<wire x1="346.71" y1="149.86" x2="345.44" y2="151.13" width="0.1524" layer="91"/>
<wire x1="346.71" y1="149.86" x2="347.98" y2="151.13" width="0.1524" layer="91"/>
</segment>
</net>
<net name="N$25" class="0">
<segment>
<wire x1="39.37" y1="111.76" x2="39.37" y2="86.36" width="0.1524" layer="91"/>
<wire x1="39.37" y1="86.36" x2="63.5" y2="86.36" width="0.1524" layer="91"/>
<wire x1="63.5" y1="86.36" x2="63.5" y2="111.76" width="0.1524" layer="91"/>
<wire x1="63.5" y1="111.76" x2="52.07" y2="111.76" width="0.1524" layer="91"/>
<wire x1="52.07" y1="111.76" x2="39.37" y2="111.76" width="0.1524" layer="91"/>
<wire x1="50.8" y1="113.03" x2="52.07" y2="111.76" width="0.1524" layer="91"/>
<wire x1="52.07" y1="111.76" x2="53.34" y2="113.03" width="0.1524" layer="91"/>
<wire x1="53.34" y1="113.03" x2="52.07" y2="113.03" width="0.1524" layer="91"/>
<wire x1="52.07" y1="113.03" x2="50.8" y2="113.03" width="0.1524" layer="91"/>
<wire x1="52.07" y1="113.03" x2="52.07" y2="123.19" width="0.1524" layer="91"/>
</segment>
</net>
<net name="N$29" class="0">
<segment>
<wire x1="46.99" y1="129.54" x2="46.99" y2="124.46" width="0.1524" layer="91"/>
<wire x1="46.99" y1="124.46" x2="52.07" y2="124.46" width="0.1524" layer="91"/>
<wire x1="52.07" y1="124.46" x2="57.15" y2="124.46" width="0.1524" layer="91"/>
<wire x1="57.15" y1="124.46" x2="57.15" y2="129.54" width="0.1524" layer="91"/>
<wire x1="57.15" y1="129.54" x2="54.61" y2="129.54" width="0.1524" layer="91"/>
<wire x1="54.61" y1="129.54" x2="49.53" y2="129.54" width="0.1524" layer="91"/>
<wire x1="49.53" y1="129.54" x2="46.99" y2="129.54" width="0.1524" layer="91"/>
<wire x1="49.53" y1="130.81" x2="49.53" y2="129.54" width="0.1524" layer="91"/>
<wire x1="54.61" y1="130.81" x2="54.61" y2="129.54" width="0.1524" layer="91"/>
<wire x1="50.8" y1="123.19" x2="53.34" y2="123.19" width="0.1524" layer="91"/>
<wire x1="53.34" y1="123.19" x2="52.07" y2="124.46" width="0.1524" layer="91"/>
<wire x1="52.07" y1="124.46" x2="50.8" y2="123.19" width="0.1524" layer="91"/>
</segment>
</net>
<net name="N$30" class="0">
<segment>
<wire x1="46.99" y1="130.81" x2="57.15" y2="130.81" width="0.1524" layer="91" curve="-180"/>
<wire x1="46.99" y1="130.81" x2="57.15" y2="130.81" width="0.1524" layer="91"/>
</segment>
</net>
</nets>
</sheet>
</sheets>
</schematic>
</drawing>
<compatibility>
<note version="6.3" minversion="6.2.2" severity="warning">
Since Version 6.2.2 text objects can contain more than one line,
which will not be processed correctly with this version.
</note>
</compatibility>
</eagle>
